1
00:00:00,150 --> 00:00:03,692
The code for this one is just this bit. Create a directional light with a white

2
00:00:03,692 --> 00:00:06,854
color and intensity of 1.5, position it so that it's coming from direction

3
00:00:06,854 --> 00:00:11,309
negative 200, 200 negative 400, and then add light to the scene.

