1
00:00:00,350 --> 00:00:04,032
In this unit, we're covering three.js's lighting capabilities. However,

2
00:00:04,032 --> 00:00:07,610
computing more elaborate forms of illumination are possible. To give you a

3
00:00:07,610 --> 00:00:10,118
glimpse at some of these higher end techniques, I've asked David Larsen to show

4
00:00:10,118 --> 00:00:11,639
off some of his work.

